{
  "cols": [
        {"id":"","label":"Faturamento Anual","pattern":"","type":"string"},
        {"id":"","label":"Vencimento","pattern":"","type":"number"}
      ],
  "rows": [
        {"c":[{"v":"Jan","f":null},{"v":3,"f":null}]},
        {"c":[{"v":"Fev","f":null},{"v":1,"f":null}]},
        {"c":[{"v":"Mar","f":null},{"v":1,"f":null}]},
        {"c":[{"v":"Abr","f":null},{"v":1,"f":null}]},
        {"c":[{"v":"Mai","f":null},{"v":1,"f":null}]},
        {"c":[{"v":"Jun","f":null},{"v":1,"f":null}]},
        {"c":[{"v":"Jul","f":null},{"v":1,"f":null}]},
        {"c":[{"v":"Ago","f":null},{"v":0,"f":null}]},
        {"c":[{"v":"Set","f":null},{"v":0,"f":null}]},
        {"c":[{"v":"Out","f":null},{"v":0,"f":null}]},
        {"c":[{"v":"Nov","f":null},{"v":0,"f":null}]},
        {"c":[{"v":"Dez","f":null},{"v":0,"f":null}]}
      ]
}